{
    "parameters": [
        187,
        31,
        0,
        5,
        569,
        697,
        437,
        194,
        165,
        1688,
        503,
        470,
        358,
        348,
        256,
        348,
        182,
        279,
        2,
        33,
        300,
        398,
        255,
        366,
        0
    ],
    "first_iteration": 196,
    "last_iteration": 200,
    "age": 5,
    "tournaments_played": 5,
    "games_won": 41,
    "tournaments_won": 5,
    "tournaments_dominated": 0,
    "games_won_per_iteration": 8.2,
    "tournaments_won_per_iteration": 1.0
}